{
    "name": "Chest(Clone)",
    "parentObject": {
        "linkedObjectID": ""
    },
    "hierarchyPath": "Level/GameLayer/",
    "prefabPath": "Prefabs/Objects/Chest",
    "uniqueID": "Chest(Clone)--588",
    "mode": 0,
    "createOrder": -1,
    "linkOrder": 0,
    "localPosition": {
        "x": -208.15625,
        "y": 0.875,
        "z": 1.5090252161026
    },
    "localScale": {
        "x": 1.0,
        "y": 1.0,
        "z": 1.0
    },
    "componentData2": [
        {
            "name": "Chest",
            "type": "ChestData",
            "data": "{\"coins\":12}"
        }
    ]
}