{
    "name": "Game",
    "parentObject": {
        "linkedObjectID": ""
    },
    "hierarchyPath": "Managers/",
    "prefabPath": "",
    "uniqueID": "Game-25580",
    "mode": 1,
    "createOrder": -1,
    "linkOrder": 0,
    "localPosition": {
        "x": -42.0,
        "y": -5.0,
        "z": 0.0
    },
    "localScale": {
        "x": 1.0,
        "y": 1.0,
        "z": 1.0
    },
    "componentData2": [
        {
            "name": "Game",
            "type": "GameData",
            "data": "{\"land\":0}"
        }
    ]
}