{
            "name": "ShopHammer Placeholder(Clone)",
            "parentObject": {
                "linkedObjectID": ""
            },
            "hierarchyPath": "Level/GameLayer/",
            "prefabPath": "Prefabs/Triggers and Spawners/ShopHammer Placeholder",
            "uniqueID": "ShopHammer Placeholder(Clone)--71844",
            "mode": 0,
            "createOrder": -1,
            "linkOrder": 0,
            "localPosition": {
                "x": -10.5,
                "y": 0.875,
                "z": 1.5
            },
            "localScale": {
                "x": 1.0,
                "y": 1.0,
                "z": 1.0
            },
            "componentData2": []
        }