{
    "name": "Merchant(Clone)",
    "parentObject": {
        "linkedObjectID": ""
    },
    "hierarchyPath": "Level/GameLayer/",
    "prefabPath": "Prefabs/Characters/Merchant",
    "uniqueID": "Merchant(Clone)--690",
    "mode": 0,
    "createOrder": -1,
    "linkOrder": 0,
    "localPosition": {
        "x": -7.037256717681885,
        "y": -21224.2578125,
        "z": 1.2000000476837158
    },
    "localScale": {
        "x": 1.0,
        "y": 1.0,
        "z": 1.0
    },
    "componentData2": [
        {
            "name": "Merchant",
            "type": "MerchantData",
            "data": "{\"state\":4,\"cargo\":8,\"side\":-1}"
        }
    ]
}