{
    "name": "Beach(Clone)",
    "parentObject": {
        "linkedObjectID": ""
    },
    "hierarchyPath": "Level/GameLayer/",
    "prefabPath": "Prefabs/Buildings and Interactive/Beach",
    "uniqueID": "Beach(Clone)--936",
    "mode": 0,
    "createOrder": -1,
    "linkOrder": 0,
    "localPosition": {
        "x": -229.9375,
        "y": 0.0,
        "z": 0.0
    },
    "localScale": {
        "x": 1.0,
        "y": 1.0,
        "z": 1.0
    },
    "componentData2": []
}