{
    "name": "ShopHammer(Clone)",
    "parentObject": {
        "linkedObjectID": ""
    },
    "hierarchyPath": "Level/GameLayer/",
    "prefabPath": "Prefabs/Buildings and Interactive/ShopHammer",
    "uniqueID": "ShopHammer(Clone)--3720",
    "mode": 0,
    "createOrder": -1,
    "linkOrder": 0,
    "localPosition": {
        "x": -4.5,
        "y": 0.875,
        "z": 1.5
    },
    "localScale": {
        "x": 1.0,
        "y": 1.0,
        "z": 1.0
    },
    "componentData2": [
        {
            "name": "PayableShop",
            "type": "PayableShopData",
            "data": "{\"items\":[]}"
        },
        {
            "name": "WorkableBuilding",
            "type": "WorkableBuildingData",
            "data": "{\"currentBuildPoints\":4.0}"
        }
    ]
}