{
    "name": "Castle2(Clone)",
    "parentObject": {
        "linkedObjectID": ""
    },
    "hierarchyPath": "Level/GameLayer/",
    "prefabPath": "Prefabs/Buildings and Interactive/Castle2",
    "uniqueID": "Castle2(Clone)--38300",
    "mode": 0,
    "createOrder": -1,
    "linkOrder": 0,
    "localPosition": {
        "x": 0.0,
        "y": 0.0,
        "z": 0.4000000059604645
    },
    "localScale": {
        "x": 1.0,
        "y": 1.0,
        "z": 1.0
    },
    "componentData2": [
        {
            "name": "PayableUpgrade",
            "type": "PayableUpgradeData",
            "data": "{\"cooldown\":-0.002277851104736328}"
        },
        {
            "name": "Castle",
            "type": "CastleData",
            "data": "{}"
        }
    ]
}