{
    "name": "Tower0(Clone)",
    "parentObject": {
        "linkedObjectID": ""
    },
    "hierarchyPath": "Level/GameLayer/",
    "prefabPath": "Prefabs/Buildings and Interactive/Tower0",
    "uniqueID": "Tower0(Clone)--71826",
    "mode": 0,
    "createOrder": -1,
    "linkOrder": 0,
    "localPosition": {
        "x": -13.0,
        "y": 0.0,
        "z": 1.6092848777770997
    },
    "localScale": {
        "x": -1.0,
        "y": 1.0,
        "z": 1.0
    },
    "componentData2": [
        {
            "name": "PayableUpgrade",
            "type": "PayableUpgradeData",
            "data": "{\"cooldown\":0.0}"
        }
    ]
}