{
    "name": "Wall2(Clone)",
    "parentObject": {
        "linkedObjectID": ""
    },
    "hierarchyPath": "Level/GameLayer/",
    "prefabPath": "Prefabs/Buildings and Interactive/Wall2",
    "uniqueID": "Wall2(Clone)--37234",
    "mode": 0,
    "createOrder": -1,
    "linkOrder": 0,
    "localPosition": {
        "x": 15.5,
        "y": 0.0,
        "z": 0.10000000149011612
    },
    "localScale": {
        "x": 1.0,
        "y": 1.0,
        "z": 1.0
    },
    "componentData2": [
        {
            "name": "WorkableBuilding",
            "type": "WorkableBuildingData",
            "data": "{\"currentBuildPoints\":30.0}"
        },
        {
            "name": "PayableUpgrade",
            "type": "PayableUpgradeData",
            "data": "{\"cooldown\":0.0}"
        },
        {
            "name": "Damageable",
            "type": "DamageableData",
            "data": "{\"hitPoints\":51,\"invulnerable\":false}"
        }
    ]
}